{
  "id": 7,
  "title": "APIs — How Programs Talk",
  "subtitle": "REST, JSON, endpoint design, and the rules of program-to-program communication",
  "group": "core",
  "sections": [
    {
      "title": "What is an API?",
      "text": "<p>An <strong>API</strong> is a set of rules for one program to talk to another. In web development, this usually means <strong>REST APIs</strong> — HTTP endpoints that accept requests and return structured data (usually JSON).</p><p>Think of it like a restaurant menu. The menu tells you what's available (endpoints), how to order (HTTP methods), and what you'll get back (the response). A well-designed API is intuitive — if you know how <code>/users</code> works, you can guess how <code>/orders</code> works.</p><p>REST uses nouns for resources and HTTP methods for verbs: <code>GET /users</code> lists them, <code>POST /users</code> creates one, <code>DELETE /users/1</code> removes one. Resources are things. Methods are actions.</p>",
      "diagram": {
        "type": "svg",
        "config": {
          "svg": "<svg viewBox=\"0 0 500 180\" xmlns=\"http://www.w3.org/2000/svg\"><rect x=\"10\" y=\"10\" width=\"480\" height=\"160\" rx=\"4\" fill=\"#11131F\" stroke=\"#202338\" stroke-width=\"1\"/><text x=\"20\" y=\"32\" fill=\"#00E5FF\" font-size=\"11\" font-family=\"JetBrains Mono,monospace\" font-weight=\"600\">REST API Endpoints</text><rect x=\"20\" y=\"44\" width=\"100\" height=\"24\" rx=\"2\" fill=\"#00F593\" opacity=\"0.15\"/><text x=\"24\" y=\"60\" fill=\"#00F593\" font-size=\"10\" font-family=\"JetBrains Mono,monospace\" font-weight=\"600\">GET</text><text x=\"64\" y=\"60\" fill=\"#8A88A0\" font-size=\"10\" font-family=\"JetBrains Mono,monospace\">/users</text><rect x=\"180\" y=\"44\" width=\"100\" height=\"24\" rx=\"2\" fill=\"#00E5FF\" opacity=\"0.15\"/><text x=\"184\" y=\"60\" fill=\"#00E5FF\" font-size=\"10\" font-family=\"JetBrains Mono,monospace\" font-weight=\"600\">POST</text><text x=\"226\" y=\"60\" fill=\"#8A88A0\" font-size=\"10\" font-family=\"JetBrains Mono,monospace\">/users</text><rect x=\"20\" y=\"78\" width=\"100\" height=\"24\" rx=\"2\" fill=\"#FFB300\" opacity=\"0.15\"/><text x=\"24\" y=\"94\" fill=\"#FFB300\" font-size=\"10\" font-family=\"JetBrains Mono,monospace\" font-weight=\"600\">GET</text><text x=\"64\" y=\"94\" fill=\"#8A88A0\" font-size=\"10\" font-family=\"JetBrains Mono,monospace\">/users/:id</text><rect x=\"180\" y=\"78\" width=\"100\" height=\"24\" rx=\"2\" fill=\"#FF3D8A\" opacity=\"0.15\"/><text x=\"184\" y=\"94\" fill=\"#FF3D8A\" font-size=\"10\" font-family=\"JetBrains Mono,monospace\" font-weight=\"600\">PUT</text><text x=\"218\" y=\"94\" fill=\"#8A88A0\" font-size=\"10\" font-family=\"JetBrains Mono,monospace\">/users/:id</text><rect x=\"20\" y=\"112\" width=\"100\" height=\"24\" rx=\"2\" fill=\"#8B5CF6\" opacity=\"0.15\"/><text x=\"24\" y=\"128\" fill=\"#8B5CF6\" font-size=\"10\" font-family=\"JetBrains Mono,monospace\" font-weight=\"600\">PATCH</text><text x=\"72\" y=\"128\" fill=\"#8A88A0\" font-size=\"10\" fon... (line truncated to 2000 chars)",
          "caption": "REST API endpoints: resources as nouns, HTTP methods as verbs"
        }
      },
      "caption": "REST APIs use nouns for resources and HTTP methods for actions",
      "code": "# A RESTful API for users\nGET    /users          # List all users\nPOST   /users          # Create a user\nGET    /users/1        # Get user with id=1\nPUT    /users/1        # Replace user with id=1\nPATCH  /users/1        # Update user with id=1\nDELETE /users/1        # Delete user with id=1\n\n# Response format\nHTTP/1.1 200 OK\nContent-Type: application/json\n\n{\n  \"id\": 1,\n  \"name\": \"Alice\",\n  \"email\": \"alice@example.com\"\n}",
      "codeLang": "http"
    },
    {
      "title": "REST vs GraphQL",
      "text": "<p><strong>REST</strong> has multiple endpoints (<code>/users</code>, <code>/users/1/orders</code>). The server decides what data you get. Sometimes you get too much (over-fetching), sometimes not enough (under-fetching — need to make more requests).</p><p><strong>GraphQL</strong> has one endpoint. You ask for exactly what you need: \"give me the user's name and their last 3 orders.\" One request, no over-fetching. But it's more complex — you need a schema, resolvers, and careful performance tuning.</p><p><strong>Which one?</strong> Start with REST. It's simpler and works for 90% of apps. Use GraphQL when different clients need different data shapes.</p>",
      "diagram": {
        "type": "comparison",
        "config": {
          "left": {
            "header": "REST",
            "items": [
              "Multiple endpoints (nouns)",
              "Server decides response shape",
              "Over-fetching: get more than needed",
              "Under-fetching: need multiple requests",
              "Caching built-in (HTTP caching)",
              "Simpler to implement and debug"
            ]
          },
          "right": {
            "header": "GraphQL",
            "items": [
              "Single endpoint (/graphql)",
              "Client specifies exactly what it wants",
              "No over-fetching — precise fields",
              "One request can get nested data",
              "Caching is harder (POST requests)",
              "Requires resolver functions + schema"
            ]
          },
          "vsLabel": "VS"
        }
      },
      "caption": "REST vs GraphQL: different approaches to the same problem",
      "code": "# REST: multiple endpoints\nGET /users/1\nGET /users/1/posts\n\n# GraphQL: single endpoint, precise query\nquery {\n  user(id: 1) {\n    name\n    email\n    posts {\n      title\n    }\n  }\n}",
      "codeLang": "graphql",
      "callout": "Start with REST. It's simpler, well-understood, and works for 90% of applications. Move to GraphQL when you have multiple clients with divergent data needs.",
      "calloutType": "tip",
      "calloutTitle": "When to Use GraphQL"
    },
    {
      "title": "API Design Best Practices",
      "text": "<p>Good API design is intuitive. Follow these rules and developers will thank you:</p><ul><li><strong>Nouns, not verbs</strong> — <code>/users</code> not <code>/getUsers</code>. Methods say what to do.</li><li><strong>Right status codes</strong> — 201 for created, 404 for not found, 500 for server errors. Never return 200 for everything.</li><li><strong>Version your API</strong> — <code>/v1/users</code>. Never break existing clients.</li><li><strong>Paginate lists</strong> — <code>?page=2&limit=20</code>. Always. Nobody wants 10,000 items at once.</li><li><strong>Consistent errors</strong> — Always return <code>{ \"error\": \"message\", \"code\": \"ERROR_TYPE\" }</code>.</li></ul><p>Consistency is king. If one endpoint works one way, all should work that way.</p>",
      "diagram": {
        "type": "infoGrid",
        "config": {
          "columns": 3,
          "items": [
            { "heading": "Naming", "body": "Plural nouns. /users, /orders. No verbs in URLs.", "color": "#00E5FF" },
            { "heading": "Status Codes", "body": "201 created, 204 deleted, 400 bad request, 404 not found, 500 server error.", "color": "#00F593" },
            { "heading": "Pagination", "body": "?offset=0&limit=20 or cursor-based for large datasets.", "color": "#8B5CF6" },
            { "heading": "Error Format", "body": "Consistent { error, code } objects, never raw strings.", "color": "#FF3D8A" },
            { "heading": "Versioning", "body": "/v1/users, /v2/users. Never remove old endpoints abruptly.", "color": "#FFB300" },
            { "heading": "Security", "body": "HTTPS always. Rate limit. Validate + sanitize all input.", "color": "#8B5CF6" }
          ]
        }
      },
      "caption": "Six principles of good API design — consistency is king",
      "code": "// Consistent error format\nHTTP/1.1 400 Bad Request\n{\n  \"error\": {\n    \"code\": \"VALIDATION_ERROR\",\n    \"message\": \"Email is required\",\n    \"field\": \"email\"\n  }\n}\n\n// Paginated response\nGET /v1/users?page=2&limit=20\n{\n  \"data\": [...],\n  \"meta\": {\n    \"page\": 2,\n    \"total\": 156,\n    \"hasMore\": true\n  }\n}",
      "codeLang": "http / json"
    }
  ]
}
